top_tb.vcd
$date
	Sun Nov 24 01:21:17 2024
$end
$version
	Icarus Verilog
$end
$timescale
	1ps
$end
$scope module top_tb $end
$var wire 1 ! ready $end
$var wire 1 " valid $end
$var wire 1 # wishbone_we $end
$var wire 1 $ wishbone_stb $end
$var wire 4 % wishbone_sel [3:0] $end
$var wire 32 & wishbone_s_data [31:0] $end
$var wire 32 ' wishbone_m_data [31:0] $end
$var wire 1 ( wishbone_cyc $end
$var wire 32 ) wishbone_addr [31:0] $end
$var wire 1 * wishbone_ack $end
$var wire 32 + rdata [31:0] $end
$var wire 1 , gnt $end
$var reg 32 - addr [31:0] $end
$var reg 1 . clk $end
$var reg 1 / req $end
$var reg 1 0 rst $end
$var reg 1 1 valid_q $end
$var reg 32 2 wdata [31:0] $end
$var reg 1 3 we $end
$scope module master $end
$var wire 1 . i_CLK $end
$var wire 1 0 i_RST $end
$var wire 1 4 i_TAGN $end
$var wire 32 5 i_addr [31:0] $end
$var wire 1 / i_req $end
$var wire 32 6 i_wdata [31:0] $end
$var wire 1 3 i_we $end
$var wire 1 7 o_TAGN $end
$var wire 1 , o_gnt $end
$var wire 32 8 o_rdata [31:0] $end
$var wire 32 9 i_DATA [31:0] $end
$var wire 1 * i_ACK $end
$var parameter 32 : ADDR_WIDTH $end
$var parameter 32 ; DATA_WIDTH $end
$var reg 32 < addr [31:0] $end
$var reg 32 = data [31:0] $end
$var reg 32 > o_ADDR [31:0] $end
$var reg 1 ( o_CYC $end
$var reg 32 ? o_DATA [31:0] $end
$var reg 4 @ o_SEL [3:0] $end
$var reg 1 $ o_STB $end
$var reg 1 # o_WE $end
$var reg 1 A we $end
$var integer 32 B next_state [31:0] $end
$var integer 32 C state [31:0] $end
$upscope $end
$scope module slave_0 $end
$var wire 32 D i_ADDR [31:0] $end
$var wire 1 . i_CLK $end
$var wire 1 ( i_CYC $end
$var wire 32 E i_DATA [31:0] $end
$var wire 1 0 i_RST $end
$var wire 4 F i_SEL [3:0] $end
$var wire 1 $ i_STB $end
$var wire 1 G i_TAGN $end
$var wire 1 # i_WE $end
$var wire 1 H o_TAGN $end
$var wire 1 I ram_valid $end
$var wire 32 J ram_rdata [31:0] $end
$var parameter 32 K ADDR_WIDTH $end
$var parameter 32 L DATA_WIDTH $end
$var reg 1 M ack $end
$var reg 1 * o_ACK $end
$var reg 32 N o_DATA [31:0] $end
$var reg 32 O ram_addr [31:0] $end
$var reg 1 P ram_ce $end
$var reg 32 Q ram_wdata [31:0] $end
$var reg 4 R ram_we [3:0] $end
$var reg 1 S valid_cycle $end
$var reg 1 T valid_req $end
$scope module block_ram $end
$var wire 32 U i_ADDR [31:0] $end
$var wire 1 P i_CE $end
$var wire 1 . i_CLK $end
$var wire 32 V i_WDATA [31:0] $end
$var wire 4 W i_WE [3:0] $end
$var parameter 32 X ADDR_WIDTH $end
$var parameter 32 Y BYTE_WIDTH $end
$var parameter 32 Z DATA_WIDTH $end
$var parameter 32 [ N_COLS $end
$var parameter 32 \ SRAM_DEPTH $end
$var reg 32 ] o_RDATA [31:0] $end
$var reg 1 I o_VALID $end
$scope begin genblk1[0] $end
$var parameter 2 ^ i $end
$scope begin MEMORY_WRITE $end
$upscope $end
$upscope $end
$scope begin genblk1[1] $end
$var parameter 2 _ i $end
$scope begin MEMORY_WRITE $end
$upscope $end
$upscope $end
$scope begin genblk1[2] $end
$var parameter 3 ` i $end
$scope begin MEMORY_WRITE $end
$upscope $end
$upscope $end
$scope begin genblk1[3] $end
$var parameter 3 a i $end
$scope begin MEMORY_WRITE $end
$upscope $end
$upscope $end
$scope begin $unm_blk_3 $end
$var integer 32 b i [31:0] $end
$upscope $end
$scope begin MEMORY_READ $end
$upscope $end
$upscope $end
$upscope $end
$upscope $end
$enddefinitions $end
$comment Show the parameter values. $end
$dumpall
b11 a
b10 `
b1 _
b0 ^
b10000000000 \
b100 [
b100000 Z
b1000 Y
b100000 X
b100000 L
b100000 K
b100000 ;
b100000 :
$end
#0
$dumpvars
b10000000000 b
bx ]
b0 W
b0 V
b0 U
0T
0S
b0 R
b0 Q
0P
b0 O
b0 N
0M
bx J
xI
zH
zG
b0 F
b0 E
b0 D
b0 C
b0 B
xA
b0 @
b0 ?
b0 >
bx =
bx <
b0 9
b0 8
z7
b0 6
b0 5
z4
03
b0 2
x1
10
0/
0.
b0 -
0,
b0 +
0*
b0 )
0(
b0 '
b0 &
b0 %
0$
0#
0"
1!
$end
#10000
b1 B
b0 J
b0 ]
0I
13
b10001001000100011001101000100 2
b10001001000100011001101000100 6
1/
00
01
1.
#20000
0.
#30000
0!
1P
b10001001000100011001101000100 Q
b10001001000100011001101000100 V
b1111 R
b1111 W
1T
1S
b10001001000100011001101000100 '
b10001001000100011001101000100 ?
b10001001000100011001101000100 E
1#
b1111 %
b1111 @
b1111 F
1$
1(
b10 B
1A
b10001001000100011001101000100 =
b0 <
b1 C
03
b0 2
b0 6
0/
1.
#40000
0.
#50000
1!
1"
b0 B
0P
1,
1*
1M
b10 C
1I
1.
#60000
0.
#70000
0"
0,
0*
b0 Q
b0 V
b0 R
b0 W
0M
0T
0S
b0 '
b0 ?
b0 E
0#
b0 %
b0 @
b0 F
0$
0(
0I
b0 C
11
1.
#80000
0.
#90000
01
1.
#100000
0.
#110000
1.
#120000
0.
#130000
b1 B
13
b1 -
b1 5
b1010101011001100111011110001000 2
b1010101011001100111011110001000 6
1/
1.
#140000
0.
#150000
0!
1P
b1010101011001100111011110001000 Q
b1010101011001100111011110001000 V
b1 O
b1 U
b1111 R
b1111 W
1T
1S
b1010101011001100111011110001000 '
b1010101011001100111011110001000 ?
b1010101011001100111011110001000 E
b1 )
b1 >
b1 D
1#
b1111 %
b1111 @
b1111 F
1$
1(
b10 B
b1010101011001100111011110001000 =
b1 <
b1 C
03
b0 -
b0 5
b0 2
b0 6
0/
1.
#160000
0.
#170000
1!
1"
b0 B
0P
1,
1*
1M
b10 C
1I
1.
#180000
0.
#190000
0"
0,
0*
b0 Q
b0 V
b0 O
b0 U
b0 R
b0 W
0M
0T
0S
b0 '
b0 ?
b0 E
b0 )
b0 >
b0 D
0#
b0 %
b0 @
b0 F
0$
0(
0I
b0 C
11
1.
#200000
0.
#210000
01
1.
#220000
0.
#230000
1.
#240000
0.
#250000
b1 B
1/
1.
#260000
0.
#270000
0!
1P
1T
1S
b1111 %
b1111 @
b1111 F
1$
1(
b10 B
0A
b0 =
b0 <
b1 C
0/
1.
#280000
0.
#290000
1!
1"
b0 B
0P
1,
1*
1M
b10001001000100011001101000100 +
b10001001000100011001101000100 8
b10001001000100011001101000100 &
b10001001000100011001101000100 9
b10001001000100011001101000100 N
b10001001000100011001101000100 J
b10001001000100011001101000100 ]
b10 C
1I
1.
#300000
0.
#310000
0"
0,
0*
0M
0T
0S
b0 +
b0 8
b0 &
b0 9
b0 N
b0 %
b0 @
b0 F
0$
0(
b0 J
b0 ]
0I
b0 C
11
1.
#320000
0.
#330000
01
1.
